%!PS-Adobe-3.0 EPSF-3.0
%%Creator: cairo 1.14.8 (http://cairographics.org)
%%CreationDate: Sat Aug  5 23:44:51 2017
%%Pages: 1
%%DocumentData: Clean7Bit
%%LanguageLevel: 2
%%BoundingBox: 0 -1 132 102
%%EndComments
%%BeginProlog
save
50 dict begin
/q { gsave } bind def
/Q { grestore } bind def
/cm { 6 array astore concat } bind def
/w { setlinewidth } bind def
/J { setlinecap } bind def
/j { setlinejoin } bind def
/M { setmiterlimit } bind def
/d { setdash } bind def
/m { moveto } bind def
/l { lineto } bind def
/c { curveto } bind def
/h { closepath } bind def
/re { exch dup neg 3 1 roll 5 3 roll moveto 0 rlineto
      0 exch rlineto 0 rlineto closepath } bind def
/S { stroke } bind def
/f { fill } bind def
/f* { eofill } bind def
/n { newpath } bind def
/W { clip } bind def
/W* { eoclip } bind def
/BT { } bind def
/ET { } bind def
/pdfmark where { pop globaldict /?pdfmark /exec load put }
    { globaldict begin /?pdfmark /pop load def /pdfmark
    /cleartomark load def end } ifelse
/BDC { mark 3 1 roll /BDC pdfmark } bind def
/EMC { mark /EMC pdfmark } bind def
/cairo_store_point { /cairo_point_y exch def /cairo_point_x exch def } def
/Tj { show currentpoint cairo_store_point } bind def
/TJ {
  {
    dup
    type /stringtype eq
    { show } { -0.001 mul 0 cairo_font_matrix dtransform rmoveto } ifelse
  } forall
  currentpoint cairo_store_point
} bind def
/cairo_selectfont { cairo_font_matrix aload pop pop pop 0 0 6 array astore
    cairo_font exch selectfont cairo_point_x cairo_point_y moveto } bind def
/Tf { pop /cairo_font exch def /cairo_font_matrix where
      { pop cairo_selectfont } if } bind def
/Td { matrix translate cairo_font_matrix matrix concatmatrix dup
      /cairo_font_matrix exch def dup 4 get exch 5 get cairo_store_point
      /cairo_font where { pop cairo_selectfont } if } bind def
/Tm { 2 copy 8 2 roll 6 array astore /cairo_font_matrix exch def
      cairo_store_point /cairo_font where { pop cairo_selectfont } if } bind def
/g { setgray } bind def
/rg { setrgbcolor } bind def
/d1 { setcachedevice } bind def
%%EndProlog
%%BeginSetup
%%EndSetup
%%Page: 1 1
%%BeginPageSetup
%%PageBoundingBox: 0 -1 132 102
%%EndPageSetup
q 0 -1 132 103 rectclip q
0.929412 0.109804 0.141176 rg
131.812 76.558 m 107.711 101.722 l 25.297 101.855 l 0 76.558 l 63.574 -0
 l h
131.812 76.558 m f*
1 0.94902 0 rg
11.059 76.105 m 27.891 93.5 l 38.465 93.367 l 22.133 85.472 18.18 74.754
 20.875 64.992 c h
48.289 31.332 m 61.359 27.75 69.43 27.16 81.055 30.726 c 64.316 13.183 
l h
26.113 56.469 m 39.758 41.144 l 41.832 49.172 63.387 44.265 65.281 37.691
 c 74.316 34.719 89.715 39.777 89.93 44.488 c 89.887 55.855 37.41 46.426
 26.113 56.469 c h
106.715 90.683 m 106.348 74.472 l 85.09 74.472 l 85.379 85.191 77.234 90.453
 61.551 90.023 c 50.512 89.808 39.902 85.492 39.758 78.371 c 39.758 61.465
 99.207 79.738 103.957 56.144 c 121.195 76.082 l h
81.43 93.308 m 92.707 93.293 l 90.234 84.902 l 88.156 89.984 84.656 91.836
 81.43 93.308 c h
81.43 93.308 m f*
Q Q
showpage
%%Trailer
end restore
%%EOF
