%!PS-Adobe-3.0 EPSF-3.0
%%Creator: cairo 1.14.8 (http://cairographics.org)
%%CreationDate: Sun Aug 13 21:51:31 2017
%%Pages: 1
%%DocumentData: Clean7Bit
%%LanguageLevel: 2
%%BoundingBox: 0 1 1627 1875
%%EndComments
%%BeginProlog
save
50 dict begin
/q { gsave } bind def
/Q { grestore } bind def
/cm { 6 array astore concat } bind def
/w { setlinewidth } bind def
/J { setlinecap } bind def
/j { setlinejoin } bind def
/M { setmiterlimit } bind def
/d { setdash } bind def
/m { moveto } bind def
/l { lineto } bind def
/c { curveto } bind def
/h { closepath } bind def
/re { exch dup neg 3 1 roll 5 3 roll moveto 0 rlineto
      0 exch rlineto 0 rlineto closepath } bind def
/S { stroke } bind def
/f { fill } bind def
/f* { eofill } bind def
/n { newpath } bind def
/W { clip } bind def
/W* { eoclip } bind def
/BT { } bind def
/ET { } bind def
/pdfmark where { pop globaldict /?pdfmark /exec load put }
    { globaldict begin /?pdfmark /pop load def /pdfmark
    /cleartomark load def end } ifelse
/BDC { mark 3 1 roll /BDC pdfmark } bind def
/EMC { mark /EMC pdfmark } bind def
/cairo_store_point { /cairo_point_y exch def /cairo_point_x exch def } def
/Tj { show currentpoint cairo_store_point } bind def
/TJ {
  {
    dup
    type /stringtype eq
    { show } { -0.001 mul 0 cairo_font_matrix dtransform rmoveto } ifelse
  } forall
  currentpoint cairo_store_point
} bind def
/cairo_selectfont { cairo_font_matrix aload pop pop pop 0 0 6 array astore
    cairo_font exch selectfont cairo_point_x cairo_point_y moveto } bind def
/Tf { pop /cairo_font exch def /cairo_font_matrix where
      { pop cairo_selectfont } if } bind def
/Td { matrix translate cairo_font_matrix matrix concatmatrix dup
      /cairo_font_matrix exch def dup 4 get exch 5 get cairo_store_point
      /cairo_font where { pop cairo_selectfont } if } bind def
/Tm { 2 copy 8 2 roll 6 array astore /cairo_font_matrix exch def
      cairo_store_point /cairo_font where { pop cairo_selectfont } if } bind def
/g { setgray } bind def
/rg { setrgbcolor } bind def
/d1 { setcachedevice } bind def
%%EndProlog
%%BeginSetup
%%EndSetup
%%Page: 1 1
%%BeginPageSetup
%%PageBoundingBox: 0 1 1627 1875
%%EndPageSetup
q 0 1 1627 1874 rectclip q
0.12549 0.313726 0.505882 rg
813.375 1875 m 366.859 1875 0.078 1755.395 0.078 1603.898 c 0.078 1564.031
 95.754 997.91 135.625 774.648 c 151.574 670.996 414.699 527.473 813.375
 527.473 c 1212.055 527.473 1467.207 670.996 1491.125 774.648 c 1530.996
 997.91 1626.672 1564.031 1626.672 1603.898 c 1618.707 1755.395 1259.891
 1875 813.375 1875 c h
813.375 710.863 m 669.852 710.863 558.223 822.492 558.223 966.016 c 558.223
 1109.539 669.852 1221.168 813.375 1221.168 c 956.898 1221.168 1068.527 
1109.539 1068.527 966.016 c 1068.527 830.469 956.898 710.863 813.375 710.863
 c h
813.375 1524.164 m 526.328 1524.164 295.098 1572.012 295.098 1635.793 c
 295.098 1699.586 526.328 1747.422 813.375 1747.422 c 1100.422 1747.422 
1331.652 1699.586 1331.652 1635.793 c 1331.652 1572.004 1100.422 1524.164
 813.375 1524.164 c h
813.375 1524.164 m f
1401.852 559.367 m 1385.902 559.367 1377.934 551.391 1377.934 551.391 c
 1377.934 551.391 1178.594 391.918 819.785 391.918 c 460.973 391.918 261.641
 551.391 261.641 551.391 c 261.641 551.391 245.691 559.367 237.715 559.367
 c 221.766 559.367 205.82 551.391 205.82 527.465 c 205.82 519.496 l 237.723
 352.059 261.641 232.453 261.641 216.504 c 285.559 96.898 524.766 1.211 
811.812 1.211 c 1098.855 1.211 1338.066 96.898 1361.984 216.504 c 1361.984
 232.453 1385.91 352.059 1417.801 519.496 c 1417.801 527.473 l 1425.777 
543.422 1417.801 559.367 1401.852 559.367 c h
1401.852 559.367 m f
940.953 973.988 m 940.953 903.531 883.836 846.41 813.375 846.41 c 742.914
 846.41 685.797 903.531 685.797 973.988 c 685.797 1044.449 742.914 1101.57
 813.375 1101.57 c 883.836 1101.57 940.953 1044.449 940.953 973.988 c h
940.953 973.988 m f
Q Q
showpage
%%Trailer
end restore
%%EOF
