%!PS-Adobe-3.0 EPSF-3.0
%%Creator: cairo 1.14.8 (http://cairographics.org)
%%CreationDate: Sun Aug  6 22:10:57 2017
%%Pages: 1
%%DocumentData: Clean7Bit
%%LanguageLevel: 2
%%BoundingBox: 0 -1 375 134
%%EndComments
%%BeginProlog
save
50 dict begin
/q { gsave } bind def
/Q { grestore } bind def
/cm { 6 array astore concat } bind def
/w { setlinewidth } bind def
/J { setlinecap } bind def
/j { setlinejoin } bind def
/M { setmiterlimit } bind def
/d { setdash } bind def
/m { moveto } bind def
/l { lineto } bind def
/c { curveto } bind def
/h { closepath } bind def
/re { exch dup neg 3 1 roll 5 3 roll moveto 0 rlineto
      0 exch rlineto 0 rlineto closepath } bind def
/S { stroke } bind def
/f { fill } bind def
/f* { eofill } bind def
/n { newpath } bind def
/W { clip } bind def
/W* { eoclip } bind def
/BT { } bind def
/ET { } bind def
/pdfmark where { pop globaldict /?pdfmark /exec load put }
    { globaldict begin /?pdfmark /pop load def /pdfmark
    /cleartomark load def end } ifelse
/BDC { mark 3 1 roll /BDC pdfmark } bind def
/EMC { mark /EMC pdfmark } bind def
/cairo_store_point { /cairo_point_y exch def /cairo_point_x exch def } def
/Tj { show currentpoint cairo_store_point } bind def
/TJ {
  {
    dup
    type /stringtype eq
    { show } { -0.001 mul 0 cairo_font_matrix dtransform rmoveto } ifelse
  } forall
  currentpoint cairo_store_point
} bind def
/cairo_selectfont { cairo_font_matrix aload pop pop pop 0 0 6 array astore
    cairo_font exch selectfont cairo_point_x cairo_point_y moveto } bind def
/Tf { pop /cairo_font exch def /cairo_font_matrix where
      { pop cairo_selectfont } if } bind def
/Td { matrix translate cairo_font_matrix matrix concatmatrix dup
      /cairo_font_matrix exch def dup 4 get exch 5 get cairo_store_point
      /cairo_font where { pop cairo_selectfont } if } bind def
/Tm { 2 copy 8 2 roll 6 array astore /cairo_font_matrix exch def
      cairo_store_point /cairo_font where { pop cairo_selectfont } if } bind def
/g { setgray } bind def
/rg { setrgbcolor } bind def
/d1 { setcachedevice } bind def
%%EndProlog
%%BeginSetup
%%EndSetup
%%Page: 1 1
%%BeginPageSetup
%%PageBoundingBox: 0 -1 375 134
%%EndPageSetup
q 0 -1 375 135 rectclip q
0.113725 0.239216 0.560784 rg
12.602 133.5 134.398 -133.5 re f
1 g
132.824 70.051 m 137.398 72.227 139.727 77.102 139.727 81.977 c 139.727
 87.824 136.051 93.449 130.875 96.074 c 125.625 98.699 119.852 98.477 114.148
 98.477 c 99.602 98.477 l 99.602 35.852 l 118.5 35.852 l 124.5 36 130.875
 36.375 135.898 39.977 c 140.773 43.648 143.551 48.824 143.551 54.898 c 
143.551 62.023 139.727 67.875 132.824 70.051 c 111.227 87.227 m 116.551 
87.227 l 119.023 87.227 122.477 87.375 124.199 86.625 c 126.523 85.727 128.102
 83.625 128.102 81.148 c 128.102 78.75 126.75 76.426 124.5 75.375 c 122.324
 74.324 119.102 74.477 116.625 74.477 c 111.227 74.477 l h
128.852 49.273 m 125.773 47.25 122.625 47.102 119.25 47.102 c 111.227 47.102
 l 111.227 63.074 l 119.477 63.074 l 122.25 63.074 125.102 63.148 127.727
 61.801 c 130.426 60.301 131.852 58.426 131.852 55.352 c 131.926 52.727 
130.949 50.699 128.852 49.273 c f
0.92549 0.403922 0.113725 rg
0 98.477 m 12.602 65.176 l 12.602 98.477 l h
0 98.477 m f
0.113725 0.239216 0.560784 rg
169.875 115.199 m 172.574 115.199 l 181.273 93.449 l 190.125 115.199 l 
192.824 115.199 l 182.477 90.375 l 180.148 90.375 l h
169.875 115.199 m f
196.648 115.199 m 202.574 115.199 l 204.898 115.199 207.523 115.199 209.625
 114 c 212.176 112.574 213.523 110.023 213.523 107.102 c 213.523 103.051
 210.227 99.75 206.176 99.676 c 213.148 90.375 l 210.074 90.375 l 201.602
 101.625 l 202.352 101.625 l 204.074 101.625 206.102 101.551 207.75 102.301
 c 209.773 103.273 210.977 105.148 210.977 107.324 c 210.977 109.051 210.074
 110.773 208.648 111.75 c 207 112.949 204.977 112.949 203.023 112.949 c 
199.125 112.949 l 199.125 90.375 l 196.648 90.375 l h
196.648 115.199 m f
218.023 115.199 2.477 -24.824 re f
237.676 97.352 m 237.523 95.398 237.676 93.977 236.324 92.398 c 234.977
 90.75 233.023 89.926 231 89.926 c 227.398 89.926 224.477 92.625 224.398
 96.227 c 226.875 96.227 l 227.023 93.898 228.898 92.324 231.301 92.324 
c 232.949 92.324 234.375 93.301 234.898 94.801 c 235.199 95.773 235.199 
97.051 235.199 98.102 c 235.199 115.199 l 237.676 115.199 l h
237.676 97.352 m f
243.75 115.199 m 257.324 115.199 l 257.324 112.949 l 246.227 112.949 l 
246.227 104.023 l 256.949 104.023 l 256.949 101.773 l 246.227 101.773 l 
246.227 92.625 l 257.324 92.625 l 257.324 90.375 l 243.75 90.375 l h
243.75 115.199 m f
174.602 79.574 m 174.602 64.5 l 174.602 62.699 174.75 60.824 175.727 59.324
 c 176.773 57.676 178.648 56.699 180.602 56.699 c 182.324 56.699 184.125
 57.523 185.176 58.949 c 186.375 60.523 186.523 62.551 186.523 64.5 c 186.523
 79.574 l 189 79.574 l 189 64.5 l 189 61.949 188.773 59.551 187.125 57.449
 c 185.551 55.426 183.074 54.301 180.523 54.301 c 178.051 54.301 175.574
 55.352 174 57.227 c 172.273 59.324 172.051 61.801 172.051 64.426 c 172.051
 79.574 l h
174.602 79.574 m f
195.074 79.574 m 198.449 79.574 l 212.398 58.949 l 212.398 79.574 l 214.875
 79.574 l 214.875 54.75 l 212.398 54.75 l 197.551 76.574 l 197.551 54.75
 l 195.074 54.75 l h
195.074 79.574 m f
220.949 79.574 2.477 -24.824 re f
227.25 79.574 m 229.949 79.574 l 238.727 57.824 l 247.5 79.574 l 250.199
 79.574 l 239.852 54.75 l 237.523 54.75 l h
227.25 79.574 m f
254.023 79.574 m 267.602 79.574 l 267.602 77.324 l 256.5 77.324 l 256.5
 68.398 l 267.301 68.398 l 267.301 66.148 l 256.5 66.148 l 256.5 57 l 267.602
 57 l 267.602 54.75 l 254.023 54.75 l h
254.023 79.574 m f
273 79.574 m 278.926 79.574 l 281.25 79.574 283.875 79.574 285.977 78.375
 c 288.523 76.949 289.875 74.398 289.875 71.477 c 289.875 67.426 286.574
 64.125 282.523 64.051 c 289.5 54.75 l 286.426 54.75 l 277.949 66 l 278.699
 66 l 280.426 66 282.449 65.926 284.102 66.676 c 286.125 67.648 287.324 
69.523 287.324 71.699 c 287.324 73.426 286.426 75.148 285 76.125 c 283.352
 77.324 281.324 77.324 279.375 77.324 c 275.477 77.324 l 275.477 54.75 l
 273 54.75 l h
273 79.574 m f
295.199 61.727 m 295.273 59.023 297.375 56.699 300.148 56.699 c 303 56.699
 305.324 58.727 305.324 61.574 c 305.324 62.926 304.648 64.273 303.602 65.102
 c 302.477 66.074 301.199 66.375 299.773 66.75 c 298.199 67.125 296.625 
67.574 295.426 68.625 c 294.074 69.824 293.324 71.477 293.324 73.273 c 293.324
 77.25 296.477 79.949 300.375 79.949 c 304.125 79.949 307.273 77.023 307.199
 73.199 c 304.574 73.199 l 304.426 75.75 302.625 77.551 300 77.551 c 297.602
 77.551 295.727 75.602 295.727 73.199 c 295.727 70.199 298.199 69.523 300.676
 68.852 c 302.477 68.324 303.977 68.023 305.477 66.75 c 306.977 65.477 307.801
 63.523 307.801 61.574 c 307.801 57.449 304.273 54.301 300.227 54.301 c 
295.949 54.301 292.5 57.375 292.5 61.727 c h
295.199 61.727 m f
312.074 79.574 2.477 -24.824 re f
324.074 77.324 m 318.301 77.324 l 318.301 79.574 l 332.176 79.574 l 332.176
 77.324 l 326.551 77.324 l 326.551 54.75 l 324.074 54.75 l h
324.074 77.324 m f
335.926 79.574 m 349.5 79.574 l 349.5 77.324 l 338.398 77.324 l 338.398
 68.398 l 349.125 68.398 l 349.125 66.148 l 338.398 66.148 l 338.398 57 
l 349.5 57 l 349.5 54.75 l 335.926 54.75 l h
335.926 79.574 m f
354.898 79.574 2.477 -24.824 re f
366.824 77.324 m 361.125 77.324 l 361.125 79.574 l 375 79.574 l 375 77.324
 l 369.375 77.324 l 369.375 54.75 l 366.824 54.75 l h
366.824 77.324 m f
172.051 43.949 m 177.898 43.949 l 179.852 43.949 181.875 43.801 183.523
 42.676 c 185.324 41.477 186.449 39.449 186.449 37.352 c 186.449 35.176 
185.398 33.602 183.676 32.398 c 186.301 31.352 187.801 29.023 187.801 26.176
 c 187.801 23.926 186.676 21.676 184.727 20.477 c 182.551 19.125 180.375
 19.199 177.898 19.125 c 172.051 19.125 l h
177.301 33.375 m 178.875 33.375 180.602 33.375 182.023 34.125 c 183.227
 34.801 184.051 36.227 184.051 37.574 c 184.051 38.926 183.227 40.273 182.102
 41.023 c 180.824 41.773 179.023 41.852 177.523 41.773 c 174.602 41.773 
l 174.602 33.375 l h
177.602 21.375 m 179.25 21.375 181.352 21.375 182.852 22.125 c 184.273 
22.875 185.324 24.523 185.25 26.102 c 185.25 28.199 184.051 29.926 182.176
 30.602 c 180.602 31.125 178.801 31.125 177.148 31.125 c 174.523 31.125 
l 174.523 21.375 l h
177.602 21.375 m f
192.375 43.949 m 198.301 43.949 l 200.625 43.949 203.25 43.949 205.352 
42.75 c 207.898 41.324 209.25 38.773 209.25 35.852 c 209.25 31.801 205.949
 28.5 201.898 28.426 c 208.875 19.125 l 205.801 19.125 l 197.324 30.375 
l 198.074 30.375 l 199.801 30.375 201.824 30.301 203.477 31.051 c 205.5 
32.023 206.699 33.898 206.699 36.074 c 206.699 37.801 205.801 39.523 204.375
 40.5 c 202.727 41.699 200.699 41.699 198.75 41.699 c 194.852 41.699 l 194.852
 19.125 l 192.375 19.125 l h
192.375 43.949 m f
216.227 43.949 m 216.227 28.875 l 216.227 27.074 216.375 25.199 217.352
 23.699 c 218.398 22.051 220.273 21.074 222.227 21.074 c 223.949 21.074 
225.75 21.898 226.801 23.324 c 228 24.977 228.148 26.926 228.148 28.875 
c 228.148 43.949 l 230.625 43.949 l 230.625 28.875 l 230.625 26.324 230.398
 23.926 228.75 21.824 c 227.176 19.801 224.699 18.676 222.148 18.676 c 219.676
 18.676 217.199 19.727 215.625 21.602 c 213.898 23.699 213.676 26.176 213.676
 28.801 c 213.676 43.875 l 216.227 43.875 l h
216.227 43.949 m f
237.523 26.102 m 237.602 23.398 239.699 21.074 242.477 21.074 c 245.324
 21.074 247.648 23.102 247.648 25.949 c 247.648 27.301 246.977 28.648 245.926
 29.477 c 244.801 30.449 243.523 30.75 242.102 31.125 c 240.523 31.5 238.949
 31.949 237.75 33 c 236.398 34.199 235.648 35.852 235.648 37.648 c 235.648
 41.625 238.801 44.324 242.699 44.324 c 246.449 44.324 249.602 41.398 249.523
 37.574 c 246.898 37.574 l 246.75 40.125 244.949 41.926 242.324 41.926 c
 239.926 41.926 238.051 39.977 238.051 37.574 c 238.051 34.574 240.523 33.898
 243 33.227 c 244.801 32.699 246.301 32.398 247.801 31.125 c 249.301 29.852
 250.125 27.898 250.125 25.949 c 250.125 21.824 246.602 18.676 242.551 18.676
 c 238.273 18.676 234.824 21.75 234.824 26.102 c h
237.523 26.102 m f
255.227 26.102 m 255.301 23.398 257.398 21.074 260.176 21.074 c 263.023
 21.074 265.352 23.102 265.352 25.949 c 265.352 27.301 264.676 28.648 263.625
 29.477 c 262.5 30.449 261.227 30.75 259.801 31.125 c 258.227 31.5 256.648
 31.949 255.449 33 c 254.102 34.199 253.352 35.852 253.352 37.648 c 253.352
 41.625 256.5 44.324 260.398 44.324 c 264.148 44.324 267.301 41.398 267.227
 37.574 c 264.602 37.574 l 264.449 40.125 262.648 41.926 260.023 41.926 
c 257.625 41.926 255.75 39.977 255.75 37.574 c 255.75 34.574 258.227 33.898
 260.699 33.227 c 262.5 32.699 264 32.398 265.5 31.125 c 267 29.852 267.824
 27.898 267.824 25.949 c 267.824 21.824 264.301 18.676 260.25 18.676 c 255.977
 18.676 252.523 21.75 252.523 26.102 c h
255.227 26.102 m f
272.102 43.949 m 285.676 43.949 l 285.676 41.699 l 274.574 41.699 l 274.574
 32.773 l 285.375 32.773 l 285.375 30.523 l 274.574 30.523 l 274.574 21.375
 l 285.676 21.375 l 285.676 19.125 l 272.102 19.125 l h
272.102 43.949 m f
291.074 43.949 m 293.551 43.949 l 293.551 21.375 l 303.898 21.375 l 303.898
 19.125 l 291.074 19.125 l h
291.074 43.949 m f
1 g
96.074 98.477 m 84.824 98.477 l 84.824 56.102 l 84.75 54 84.523 52.051 
83.625 50.176 c 82.125 47.477 79.273 45.602 75.977 45.227 c 75.824 45.227
 75.75 45.227 75.602 45.227 c 75.301 45.227 75 45.148 74.699 45.148 c 74.398
 45.148 74.102 45.148 73.801 45.227 c 73.648 45.227 73.574 45.227 73.426
 45.227 c 70.125 45.602 67.273 47.551 65.773 50.176 c 64.801 52.051 64.574
 54.074 64.574 56.102 c 64.574 98.477 l 50.324 98.477 l 46.949 98.477 44.023
 96.227 43.125 93.074 c 43.125 93 43.051 92.926 43.051 92.926 c 29.102 52.125
 l 29.023 52.125 l 12.602 98.477 l 12.602 65.25 l 23.477 35.852 l 34.801
 35.852 l 53.102 86.398 l 53.25 86.773 l 53.324 86.773 l 53.324 58.5 l 53.324
 54 53.625 49.727 55.426 45.824 c 58.727 39.227 65.625 34.648 73.727 34.352
 c 74.023 34.352 74.324 34.352 74.625 34.352 c 74.926 34.352 75.227 34.352
 75.523 34.352 c 83.625 34.648 90.523 39.301 93.824 45.824 c 95.625 49.727
 95.926 54 95.926 58.5 c 95.926 98.477 l h
96.074 98.477 m f
Q Q
showpage
%%Trailer
end restore
%%EOF
